{
  "name": "musiik",
  "$schema": "../../node_modules/nx/schemas/project-schema.json",
  "sourceRoot": "apps/musiik/src",
  "projectType": "application",
  "tags": [],
  "// targets": "to see all targets run: nx show project musiik --web",
  "targets": {}
}
